{
	"status": "sucesso",
	"objects": {
		"componente": "217513",
		"opcoes": [{
			"formato_opcao": "MANUAL",
			"nome": "a_co",
			"atribuicao": "biblioteca.componente.acabamento.grupo",
			"label": "Acabamento",
			"valor": "39759",
			"fl_somente_leitura": false,
			"opcao_componente_lista": []
		}, {
			"formato_opcao": "LISTA",
			"nome": "fundo",
			"atribuicao": "",
			"label": "Fundo",
			"valor": "",
			"fl_somente_leitura": false,
			"opcao_componente_lista": [{
				"valor_padrao": true,
				"texto": "Com fundo",
				"valor": "1"
			}, {
				"valor_padrao": false,
				"texto": "Sem fundo",
				"valor": "0"
			}]
		}, {
			"formato_opcao": "LISTA",
			"nome": "LenX",
			"atribuicao": "",
			"label": "Comprimento",
			"valor": "",
			"fl_somente_leitura": false,
			"opcao_componente_lista": [{
				"valor_padrao": true,
				"texto": "800 mm",
				"valor": "800"
			}, {
				"valor_padrao": false,
				"texto": "700 mm",
				"valor": "700"
			}]
		}, {
			"formato_opcao": "MANUAL",
			"nome": "LenY",
			"atribuicao": "",
			"label": "Profundidade",
			"valor": "600",
			"fl_somente_leitura": true,
			"opcao_componente_lista": []
		}, {
			"formato_opcao": "LISTA",
			"nome": "LenZ",
			"atribuicao": "",
			"label": "LenZ",
			"valor": "",
			"fl_somente_leitura": false,
			"opcao_componente_lista": [{
				"valor_padrao": false,
				"texto": "750 mm",
				"valor": "750"
			}, {
				"valor_padrao": true,
				"texto": "700 mm",
				"valor": "700"
			}]
		}, {
			"formato_opcao": "MANUAL",
			"nome": "sub_a_co",
			"atribuicao": "biblioteca.componente.acabamento.subgrupo",
			"label": "Espessura do MDF",
			"valor": "1",
			"fl_somente_leitura": false,
			"opcao_componente_lista": []
		}]
	}
}